{ "height":35,
 "infinite":false,
 "layers":[
        {
         "data":[295, 296, 295, 296, 297, 298, 299, 300, 301, 302, 303, 304, 305, 306, 307, 307, 295, 316, 316, 316, 295, 295, 296, 297, 298, 299, 300, 301, 302, 303, 304, 305, 306, 295, 296, 297, 298, 299, 300, 301, 302, 303, 304, 305, 306, 307, 307, 328, 328, 328, 295, 296, 295, 296, 297, 298, 299, 300, 301, 302, 303, 304, 305, 306, 307, 307, 295, 316, 316, 316, 295, 295, 296, 297, 298, 299, 300, 301, 302, 303, 0, 0, 0, 0, 0, 0, 0, 0, 0, 0, 0, 0, 0, 0, 0, 0, 0, 0, 0, 0, 296, 297, 295, 296, 297, 298, 299, 300, 301, 302, 303, 304, 305, 306, 307, 328, 316, 337, 337, 337, 316, 295, 296, 297, 298, 299, 300, 301, 302, 303, 304, 305, 295, 296, 297, 298, 299, 300, 301, 302, 303, 304, 305, 306, 307, 307, 328, 349, 349, 295, 296, 297, 295, 296, 297, 298, 299, 300, 301, 302, 303, 304, 305, 306, 307, 328, 316, 337, 337, 337, 316, 295, 296, 297, 298, 299, 300, 301, 302, 303, 0, 0, 0, 0, 0, 0, 0, 0, 0, 0, 0, 0, 0, 0, 0, 0, 0, 0, 0, 0, 297, 295, 296, 297, 298, 299, 300, 301, 302, 303, 304, 305, 306, 307, 328, 349, 337, 358, 358, 358, 337, 295, 295, 296, 297, 298, 299, 300, 295, 296, 297, 298, 299, 300, 301, 302, 303, 304, 305, 306, 307, 304, 305, 306, 307, 328, 349, 370, 295, 296, 297, 295, 296, 297, 298, 299, 300, 301, 302, 303, 304, 305, 306, 307, 328, 349, 337, 358, 358, 358, 337, 295, 295, 296, 297, 298, 299, 300, 295, 296, 0, 0, 0, 0, 0, 0, 0, 0, 0, 0, 0, 0, 0, 0, 0, 0, 0, 0, 0, 0, 297, 295, 296, 297, 298, 299, 300, 301, 302, 303, 304, 305, 306, 307, 349, 370, 358, 358, 359, 360, 358, 316, 295, 295, 296, 297, 298, 299, 295, 296, 297, 298, 299, 300, 301, 302, 303, 304, 305, 306, 307, 305, 306, 307, 328, 349, 370, 295, 295, 296, 297, 295, 296, 297, 298, 299, 300, 301, 302, 303, 304, 305, 306, 307, 349, 370, 358, 358, 359, 360, 358, 316, 295, 295, 296, 297, 298, 299, 295, 296, 0, 0, 0, 0, 0, 0, 0, 0, 0, 0, 0, 0, 0, 0, 0, 0, 0, 0, 0, 0, 298, 295, 296, 297, 298, 299, 295, 296, 297, 298, 299, 300, 301, 302, 303, 304, 359, 360, 361, 362, 363, 337, 316, 316, 295, 296, 297, 298, 295, 295, 296, 297, 298, 299, 300, 301, 302, 303, 304, 305, 306, 307, 306, 307, 349, 370, 295, 295, 296, 297, 298, 295, 296, 297, 298, 299, 295, 296, 297, 298, 299, 300, 301, 302, 303, 304, 359, 360, 361, 362, 363, 337, 316, 316, 295, 296, 297, 298, 295, 295, 0, 0, 0, 0, 0, 0, 0, 0, 0, 0, 0, 0, 0, 0, 0, 0, 0, 0, 0, 0, 298, 295, 296, 297, 298, 299, 295, 296, 297, 298, 299, 300, 301, 302, 303, 304, 296, 297, 298, 299, 300, 301, 302, 303, 304, 305, 306, 307, 307, 295, 296, 297, 298, 299, 300, 301, 302, 303, 304, 305, 306, 307, 306, 307, 370, 362, 295, 295, 296, 297, 298, 295, 296, 297, 298, 299, 295, 296, 297, 298, 299, 300, 301, 302, 303, 304, 296, 297, 298, 299, 300, 301, 302, 303, 304, 305, 306, 307, 307, 295, 0, 0, 0, 0, 0, 0, 0, 0, 0, 0, 0, 0, 0, 0, 0, 0, 0, 0, 0, 0, 297, 295, 296, 297, 298, 299, 295, 296, 297, 298, 299, 300, 301, 302, 303, 304, 296, 297, 298, 299, 300, 301, 302, 303, 304, 305, 306, 307, 328, 316, 295, 296, 297, 298, 299, 300, 301, 302, 303, 304, 305, 306, 307, 306, 307, 363, 295, 316, 295, 296, 297, 295, 296, 297, 298, 299, 295, 296, 297, 298, 299, 300, 301, 302, 303, 304, 296, 297, 298, 299, 300, 301, 302, 303, 304, 305, 306, 307, 328, 316, 0, 0, 0, 0, 0, 0, 0, 0, 0, 0, 0, 0, 0, 0, 0, 0, 0, 0, 0, 0, 306, 307, 307, 297, 298, 299, 295, 296, 297, 298, 299, 300, 301, 302, 303, 304, 296, 297, 298, 299, 300, 301, 302, 303, 304, 305, 306, 307, 349, 307, 295, 296, 297, 298, 299, 300, 301, 302, 303, 304, 305, 306, 307, 307, 300, 301, 302, 303, 304, 305, 306, 307, 307, 297, 298, 299, 295, 296, 297, 298, 299, 300, 301, 302, 303, 304, 296, 297, 298, 299, 300, 301, 302, 303, 304, 736, 736, 736, 736, 736, 0, 0, 0, 0, 0, 0, 0, 0, 0, 0, 0, 0, 0, 0, 0, 0, 0, 0, 0, 0, 306, 307, 328, 307, 298, 299, 295, 296, 297, 298, 299, 300, 301, 302, 303, 304, 296, 297, 298, 299, 300, 301, 302, 303, 304, 305, 306, 307, 370, 328, 302, 303, 304, 305, 306, 307, 307, 301, 302, 303, 304, 305, 306, 307, 307, 301, 302, 303, 304, 305, 306, 307, 328, 307, 298, 299, 295, 296, 297, 298, 299, 300, 301, 302, 303, 304, 296, 297, 298, 299, 300, 301, 302, 303, 304, 736, 736, 736, 736, 736, 0, 0, 0, 0, 0, 0, 0, 0, 0, 0, 0, 0, 0, 0, 0, 0, 0, 0, 0, 0, 306, 307, 349, 328, 301, 302, 303, 304, 305, 306, 307, 300, 301, 302, 303, 304, 296, 297, 298, 299, 300, 301, 302, 303, 304, 305, 306, 307, 370, 349, 307, 303, 304, 305, 306, 307, 328, 307, 302, 303, 304, 305, 306, 307, 328, 307, 302, 303, 304, 305, 306, 307, 349, 328, 301, 302, 303, 304, 305, 306, 307, 300, 301, 302, 303, 304, 296, 297, 298, 299, 300, 301, 302, 303, 304, 736, 736, 736, 736, 736, 0, 0, 0, 0, 0, 0, 0, 0, 0, 0, 0, 0, 0, 0, 0, 0, 0, 0, 0, 0, 306, 307, 307, 349, 322, 323, 324, 325, 326, 327, 328, 307, 302, 303, 304, 305, 296, 297, 298, 299, 300, 301, 302, 303, 304, 305, 306, 307, 369, 370, 328, 307, 304, 305, 306, 307, 349, 328, 307, 303, 304, 305, 306, 307, 349, 328, 307, 303, 304, 305, 306, 307, 307, 349, 322, 323, 324, 325, 326, 327, 328, 307, 302, 303, 304, 305, 296, 297, 298, 299, 300, 301, 302, 303, 304, 305, 736, 736, 736, 736, 0, 0, 0, 0, 0, 0, 0, 0, 0, 0, 0, 0, 0, 0, 0, 0, 0, 0, 0, 0, 306, 307, 328, 370, 343, 344, 345, 346, 347, 348, 349, 328, 302, 303, 304, 305, 296, 297, 298, 299, 300, 301, 302, 303, 304, 305, 306, 307, 369, 370, 307, 328, 307, 305, 306, 307, 370, 349, 328, 307, 304, 305, 306, 307, 370, 349, 328, 303, 304, 305, 306, 307, 328, 370, 343, 344, 345, 346, 347, 348, 349, 328, 302, 303, 304, 305, 296, 297, 298, 299, 300, 301, 302, 303, 304, 305, 736, 736, 736, 736, 0, 0, 0, 0, 0, 0, 0, 0, 0, 0, 0, 0, 0, 0, 0, 0, 0, 0, 0, 0, 384, 385, 386, 387, 388, 389, 390, 391, 392, 393, 394, 395, 396, 397, 398, 398, 390, 391, 392, 393, 394, 395, 396, 397, 398, 379, 380, 381, 382, 383, 384, 385, 386, 387, 388, 389, 390, 391, 392, 393, 394, 395, 396, 397, 398, 379, 380, 381, 382, 383, 384, 385, 386, 387, 388, 389, 390, 391, 392, 393, 394, 395, 396, 397, 398, 398, 390, 391, 392, 393, 394, 395, 396, 397, 398, 379, 380, 736, 736, 383, 0, 0, 0, 0, 0, 0, 0, 0, 0, 0, 0, 0, 0, 0, 0, 0, 0, 0, 0, 0, 405, 406, 407, 408, 409, 410, 411, 412, 413, 414, 415, 416, 417, 418, 419, 419, 411, 412, 413, 414, 415, 416, 417, 418, 419, 400, 401, 402, 403, 404, 405, 406, 407, 408, 409, 410, 411, 412, 413, 414, 415, 416, 417, 418, 419, 400, 401, 402, 403, 404, 405, 406, 407, 408, 409, 410, 411, 412, 413, 414, 415, 416, 417, 418, 419, 419, 411, 412, 413, 414, 415, 416, 417, 418, 419, 400, 401, 402, 403, 404, 0, 0, 0, 0, 0, 0, 0, 0, 0, 0, 0, 0, 0, 0, 0, 0, 0, 0, 0, 0, 426, 427, 428, 429, 430, 431, 432, 433, 434, 435, 436, 437, 438, 439, 440, 440, 432, 433, 434, 435, 436, 437, 438, 439, 440, 421, 422, 423, 424, 425, 426, 427, 428, 429, 430, 431, 432, 433, 434, 435, 436, 437, 438, 439, 440, 421, 422, 423, 424, 425, 426, 427, 428, 429, 430, 431, 432, 433, 434, 435, 436, 437, 438, 439, 440, 440, 432, 433, 434, 435, 436, 437, 438, 439, 440, 421, 422, 423, 424, 425, 0, 0, 0, 0, 0, 0, 0, 0, 0, 0, 0, 0, 0, 0, 0, 0, 0, 0, 0, 0, 447, 448, 449, 450, 451, 452, 453, 454, 455, 456, 457, 458, 459, 460, 461, 461, 453, 454, 455, 456, 457, 458, 459, 460, 461, 442, 443, 444, 445, 446, 447, 448, 449, 450, 451, 452, 453, 454, 455, 456, 457, 458, 459, 460, 461, 442, 443, 444, 445, 446, 447, 448, 449, 450, 451, 452, 453, 454, 455, 456, 457, 458, 459, 460, 461, 461, 453, 454, 455, 456, 457, 458, 459, 203, 203, 203, 204, 205, 206, 207, 0, 0, 0, 0, 0, 0, 0, 0, 0, 0, 0, 0, 0, 0, 0, 0, 0, 0, 0, 0, 468, 469, 470, 471, 472, 473, 474, 475, 476, 477, 478, 479, 480, 481, 482, 482, 474, 475, 476, 477, 478, 479, 480, 481, 482, 463, 464, 465, 466, 467, 468, 469, 470, 471, 472, 473, 474, 475, 476, 477, 478, 479, 480, 481, 482, 463, 464, 465, 466, 467, 468, 469, 470, 471, 472, 473, 474, 475, 476, 477, 478, 479, 480, 481, 482, 482, 474, 475, 476, 477, 478, 479, 480, 224, 224, 203, 203, 203, 203, 203, 203, 204, 205, 206, 207, 0, 0, 0, 0, 0, 0, 0, 0, 0, 0, 0, 0, 0, 0, 0, 446, 447, 448, 449, 450, 451, 452, 453, 454, 455, 456, 457, 458, 459, 460, 461, 452, 453, 454, 455, 456, 457, 458, 459, 460, 461, 442, 443, 444, 445, 446, 447, 448, 449, 450, 451, 452, 453, 454, 455, 456, 457, 458, 459, 460, 461, 442, 443, 444, 445, 446, 447, 448, 449, 450, 451, 452, 453, 454, 455, 456, 457, 458, 459, 460, 461, 452, 453, 454, 455, 456, 457, 203, 245, 245, 224, 224, 224, 224, 224, 203, 203, 204, 205, 206, 207, 0, 0, 0, 0, 0, 0, 0, 0, 0, 0, 0, 0, 0, 0, 425, 426, 427, 428, 429, 430, 431, 432, 433, 434, 435, 436, 437, 438, 439, 440, 431, 432, 433, 434, 435, 436, 437, 438, 439, 440, 421, 422, 423, 424, 425, 426, 427, 428, 429, 430, 431, 432, 433, 434, 435, 436, 437, 438, 439, 440, 421, 422, 423, 424, 425, 426, 427, 428, 429, 430, 431, 432, 433, 434, 435, 436, 437, 438, 439, 440, 431, 432, 433, 434, 435, 436, 224, 245, 246, 245, 245, 245, 245, 245, 224, 203, 203, 204, 205, 206, 207, 0, 0, 0, 0, 0, 0, 0, 0, 0, 0, 0, 0, 0, 446, 447, 448, 449, 450, 451, 452, 453, 454, 455, 456, 457, 458, 459, 460, 461, 452, 453, 454, 455, 456, 457, 458, 459, 460, 461, 442, 443, 444, 445, 446, 447, 448, 449, 450, 451, 452, 453, 454, 455, 456, 457, 458, 459, 460, 461, 442, 443, 444, 445, 446, 447, 448, 449, 450, 451, 452, 453, 454, 455, 456, 457, 458, 459, 460, 461, 452, 453, 454, 455, 456, 457, 245, 245, 245, 245, 246, 1136, 1136, 249, 245, 224, 203, 204, 205, 206, 207, 0, 0, 0, 0, 0, 0, 0, 0, 0, 0, 0, 0, 0, 450, 450, 451, 452, 453, 454, 455, 456, 457, 458, 477, 478, 479, 480, 481, 482, 473, 474, 475, 476, 477, 478, 479, 480, 481, 482, 463, 464, 465, 466, 467, 468, 469, 470, 471, 472, 473, 474, 475, 476, 477, 478, 479, 480, 481, 482, 463, 464, 465, 466, 450, 450, 451, 452, 453, 454, 455, 456, 457, 458, 477, 478, 479, 480, 481, 482, 473, 474, 475, 1136, 1136, 1136, 1136, 1136, 1136, 1136, 1136, 1136, 1136, 1136, 1136, 245, 224, 225, 226, 227, 228, 0, 0, 0, 0, 0, 0, 0, 0, 0, 0, 0, 0, 0, 458, 450, 451, 452, 453, 454, 455, 456, 457, 458, 452, 453, 454, 455, 456, 457, 450, 450, 450, 450, 450, 451, 452, 453, 454, 455, 456, 457, 458, 453, 454, 455, 456, 457, 458, 493, 494, 495, 496, 497, 498, 499, 450, 451, 452, 453, 454, 455, 456, 457, 458, 450, 451, 452, 453, 454, 455, 456, 457, 458, 452, 453, 454, 455, 456, 457, 450, 450, 1136, 1136, 1136, 1136, 1136, 1136, 1136, 1136, 1136, 1136, 1136, 1136, 1136, 1136, 245, 246, 247, 248, 249, 1136, 1136, 1136, 1136, 1136, 1136, 0, 0, 0, 0, 0, 0, 0, 457, 458, 451, 452, 453, 454, 455, 456, 457, 458, 455, 456, 457, 458, 458, 457, 471, 471, 471, 471, 450, 450, 450, 451, 452, 453, 454, 455, 456, 457, 458, 454, 455, 456, 457, 458, 451, 452, 453, 454, 455, 456, 457, 458, 456, 457, 458, 454, 455, 456, 457, 458, 451, 452, 453, 454, 455, 456, 457, 458, 455, 456, 457, 458, 458, 457, 471, 1136, 1136, 1136, 1136, 1136, 1136, 1136, 1136, 1136, 1136, 1136, 1136, 1136, 1136, 1136, 1136, 1136, 1136, 1136, 1136, 1136, 1136, 1136, 1136, 1136, 1136, 0, 0, 0, 0, 0, 0, 0, 457, 458, 458, 452, 453, 454, 455, 456, 457, 458, 455, 456, 457, 458, 479, 458, 450, 450, 450, 451, 452, 453, 454, 455, 456, 457, 458, 454, 455, 456, 457, 458, 454, 455, 456, 457, 458, 451, 452, 453, 454, 455, 456, 457, 458, 455, 456, 457, 458, 456, 457, 458, 458, 452, 453, 454, 455, 456, 457, 458, 455, 456, 457, 458, 479, 458, 1136, 1136, 1136, 1136, 1136, 1136, 1136, 1136, 1136, 1136, 1136, 1136, 1136, 1136, 1136, 1136, 1136, 1136, 1136, 1136, 1136, 1136, 1136, 1136, 1136, 1136, 1136, 0, 0, 0, 0, 0, 0, 0, 457, 458, 479, 458, 453, 454, 455, 456, 457, 458, 455, 456, 457, 458, 500, 479, 471, 471, 471, 450, 450, 450, 451, 452, 453, 454, 455, 456, 457, 458, 457, 458, 454, 455, 456, 457, 458, 451, 452, 453, 454, 455, 456, 457, 458, 455, 456, 457, 458, 456, 457, 458, 479, 458, 453, 454, 455, 456, 457, 458, 455, 456, 457, 1136, 1136, 1136, 1136, 1136, 1136, 1136, 1136, 1136, 1136, 1136, 1136, 1136, 1136, 1136, 1136, 1136, 1136, 1136, 1136, 1136, 1136, 1136, 1136, 1136, 1136, 1136, 1136, 1136, 1136, 0, 0, 0, 0, 0, 0, 0, 457, 458, 500, 479, 458, 455, 456, 457, 458, 458, 456, 457, 458, 458, 499, 500, 492, 492, 492, 471, 471, 450, 450, 450, 451, 452, 453, 454, 455, 456, 457, 458, 455, 456, 457, 458, 458, 451, 452, 453, 454, 455, 456, 457, 458, 455, 456, 457, 458, 456, 457, 458, 500, 479, 458, 455, 456, 457, 458, 458, 456, 457, 1136, 1136, 1136, 1136, 1136, 1136, 1136, 1136, 1136, 1136, 1136, 1136, 1136, 1136, 1136, 1136, 1136, 1136, 1136, 1136, 1136, 1136, 1136, 1136, 1136, 1136, 1136, 1136, 1136, 1136, 1136, 0, 0, 0, 0, 0, 0, 0, 458, 458, 500, 500, 479, 458, 456, 457, 458, 479, 458, 458, 458, 479, 499, 500, 496, 450, 450, 450, 450, 451, 452, 453, 454, 455, 456, 457, 458, 455, 456, 457, 458, 458, 458, 458, 479, 458, 458, 458, 456, 457, 458, 458, 458, 458, 456, 457, 458, 457, 458, 458, 500, 500, 479, 458, 456, 457, 458, 479, 458, 458, 1136, 1136, 1136, 1136, 1136, 1136, 1136, 1136, 1136, 1136, 1136, 1136, 1136, 1136, 1136, 1136, 1136, 1136, 1136, 1136, 1136, 1136, 1136, 1136, 1136, 1136, 1136, 1136, 1136, 1136, 0, 0, 0, 0, 0, 0, 0, 0, 458, 479, 499, 500, 500, 479, 458, 458, 479, 500, 479, 479, 479, 500, 498, 499, 450, 471, 471, 471, 450, 450, 450, 450, 450, 450, 450, 451, 452, 453, 454, 455, 456, 457, 458, 479, 500, 479, 479, 479, 458, 458, 458, 479, 479, 479, 458, 458, 458, 458, 458, 479, 499, 500, 500, 479, 458, 458, 479, 500, 479, 479, 1136, 1136, 1136, 1136, 1136, 1136, 1136, 1136, 1136, 1136, 1136, 1136, 1136, 1136, 1136, 1136, 1136, 1136, 1136, 1136, 1136, 1136, 1136, 1136, 1136, 1136, 1136, 1136, 0, 0, 0, 0, 0, 0, 0, 0, 0, 0, 479, 500, 498, 499, 500, 500, 479, 479, 500, 500, 500, 500, 500, 496, 497, 498, 471, 492, 450, 450, 450, 451, 452, 453, 454, 455, 456, 457, 458, 451, 452, 453, 454, 455, 456, 457, 458, 500, 500, 500, 479, 479, 479, 500, 500, 500, 479, 479, 479, 479, 479, 500, 498, 499, 500, 500, 479, 479, 500, 500, 500, 500, 1136, 1136, 1136, 1136, 1136, 1136, 1136, 1136, 1136, 1136, 1136, 1136, 1136, 1136, 1136, 1136, 1136, 1136, 1136, 1136, 1136, 1136, 1136, 1136, 1136, 1136, 0, 0, 0, 0, 0, 0, 0, 0, 0, 0, 0, 0, 500, 496, 497, 498, 499, 500, 500, 500, 498, 499, 500, 494, 495, 496, 497, 498, 492, 492, 471, 471, 450, 450, 450, 450, 450, 450, 451, 452, 453, 454, 455, 456, 457, 458, 458, 458, 458, 498, 499, 500, 500, 500, 500, 498, 499, 500, 500, 500, 500, 500, 500, 496, 497, 498, 499, 500, 500, 500, 498, 499, 500, 494, 1136, 1136, 1136, 1136, 1136, 1136, 1136, 1136, 1136, 1136, 1136, 1136, 1136, 1136, 1136, 1136, 1136, 1136, 1136, 1136, 1136, 1136, 1136, 1136, 1136, 1136, 0, 0, 0, 0, 0, 0, 0, 0, 0, 0, 0, 0, 1136, 1136, 1136, 1136, 1136, 1136, 1136, 1136, 1136, 1136, 1136, 1136, 1136, 1136, 1136, 1136, 1136, 1136, 1136, 1136, 1136, 1136, 1136, 1136, 1136, 1136, 1136, 1136, 1136, 1136, 1136, 1136, 1136, 1136, 1136, 1136, 1136, 1136, 1136, 1136, 1136, 1136, 1136, 1136, 1136, 1136, 1136, 1136, 1136, 1136, 1136, 1136, 1136, 1136, 1136, 1136, 1136, 1136, 1136, 0, 1136, 1136, 1136, 1136, 1136, 1136, 1136, 1136, 1136, 1136, 1136, 1136, 1136, 1136, 1136, 1136, 1136, 1136, 1136, 1136, 1136, 1136, 1136, 1136, 1136, 1136, 1136, 1136, 1136, 1136, 1136, 1136, 1136, 1136, 1136, 1136, 1136, 1136, 1136, 1136, 1136, 1136, 1136, 1136, 1136, 1136, 1136, 1136, 1136, 1136, 1136, 1136, 1136, 1136, 1136, 1136, 1136, 1136, 1136, 1136, 1136, 1136, 1136, 1136, 1136, 1136, 1136, 1136, 1136, 1136, 1136, 1136, 1136, 1136, 1136, 1136, 1136, 1136, 1136, 1136, 1136, 1136, 1136, 1136, 1136, 1136, 1136, 1136, 1136, 1136, 1136, 1136, 1136, 1136, 1136, 1136, 1136, 1136, 1136, 0, 1136, 1136, 1136, 1136, 1136, 1136, 1136, 1136, 1136, 1136, 1136, 1136, 1136, 1136, 1136, 1136, 1136, 1136, 1136, 1136, 1136, 1136, 1136, 1136, 1136, 1136, 1136, 1136, 1136, 1136, 1136, 1136, 1136, 1136, 1136, 1136, 1136, 1136, 1136, 1136, 1136, 1136, 1136, 1136, 1136, 1136, 1136, 1136, 1136, 1136, 1136, 1136, 1136, 1136, 1136, 1136, 1136, 1136, 1136, 1136, 1136, 1136, 1136, 1136, 1136, 1136, 1136, 1136, 1136, 1136, 1136, 1136, 1136, 1136, 1136, 1136, 1136, 1136, 1136, 1136, 1136, 1136, 1136, 1136, 1136, 1136, 1136, 1136, 1136, 1136, 1136, 1136, 1136, 1136, 1136, 1136, 1136, 1136, 1136, 0, 1136, 1136, 1136, 1136, 1136, 1136, 1136, 1136, 1136, 1136, 1136, 1136, 1136, 1136, 1136, 1136, 1136, 1136, 1136, 1136, 1136, 1136, 1136, 1136, 1136, 1136, 1136, 1136, 1136, 1136, 1136, 1136, 1136, 1136, 1136, 1136, 1136, 1136, 1136, 1136, 1136, 1136, 1136, 1136, 1136, 1136, 1136, 1136, 1136, 1136, 1136, 1136, 1136, 1136, 1136, 1136, 1136, 1136, 1136, 1136, 1136, 1136, 1136, 1136, 1136, 1136, 1136, 1136, 1136, 1136, 1136, 1136, 1136, 1136, 1136, 1136, 1136, 1136, 1136, 1136, 1136, 1136, 1136, 1136, 1136, 1136, 1136, 1136, 1136, 1136, 1136, 1136, 1136, 1136, 1136, 1136, 1136, 1136, 1136, 0, 1136, 1136, 1136, 1136, 1136, 1136, 1136, 1136, 1136, 1136, 1136, 1136, 1136, 1136, 1136, 1136, 1136, 1136, 1136, 1136, 1136, 1136, 1136, 1136, 1136, 1136, 1136, 1136, 1136, 1136, 1136, 1136, 1136, 1136, 1136, 1136, 1136, 1136, 1136, 1136, 1136, 1136, 1136, 1136, 1136, 1136, 1136, 1136, 1136, 1136, 1136, 1136, 1136, 1136, 1136, 1136, 1136, 1136, 1136, 1136, 1136, 1136, 1136, 1136, 1136, 1136, 1136, 1136, 1136, 1136, 1136, 1136, 1136, 1136, 1136, 1136, 1136, 1136, 1136, 1136, 1136, 1136, 1136, 1136, 1136, 1136, 1136, 1136, 1136, 1136, 1136, 1136, 1136, 1136, 1136, 1136, 1136, 1136, 1136, 0, 1136, 1136, 1136, 1136, 1136, 1136, 1136, 1136, 1136, 1136, 1136, 1136, 1136, 1136, 1136, 1136, 1136, 1136, 1136, 1136, 1136, 1136, 1136, 1136, 1136, 1136, 1136, 1136, 1136, 1136, 1136, 1136, 1136, 1136, 1136, 1136, 1136, 1136, 1136, 1136],
         "height":35,
         "id":1,
         "name":"Background",
         "opacity":1,
         "type":"tilelayer",
         "visible":true,
         "width":100,
         "x":0,
         "y":0
        }, 
        {
         "data":[0, 0, 0, 0, 0, 0, 0, 0, 0, 0, 0, 0, 0, 0, 0, 0, 0, 0, 0, 0, 0, 0, 0, 0, 0, 0, 0, 0, 0, 0, 0, 0, 0, 0, 0, 0, 0, 0, 0, 0, 0, 0, 0, 0, 0, 0, 0, 0, 0, 0, 0, 0, 0, 0, 0, 0, 0, 0, 0, 0, 0, 0, 0, 0, 0, 0, 0, 0, 0, 0, 0, 0, 0, 0, 0, 0, 0, 0, 0, 0, 1136, 1136, 1136, 1136, 1136, 1136, 1136, 1136, 1136, 1136, 1136, 1136, 1136, 1136, 1136, 1136, 1136, 1136, 1136, 1136, 0, 0, 0, 0, 0, 0, 0, 0, 0, 0, 0, 0, 0, 0, 0, 0, 0, 0, 0, 0, 0, 0, 0, 0, 0, 0, 0, 0, 0, 0, 0, 0, 0, 0, 0, 0, 0, 0, 0, 0, 0, 0, 0, 0, 0, 0, 0, 0, 0, 0, 0, 0, 0, 0, 0, 0, 0, 0, 0, 0, 0, 0, 0, 0, 0, 0, 0, 0, 0, 0, 0, 0, 0, 0, 0, 0, 0, 0, 0, 0, 1136, 1136, 1136, 1136, 1136, 1136, 1136, 1136, 1136, 1136, 1136, 1136, 1136, 1136, 1136, 1136, 1136, 1136, 1136, 1136, 0, 0, 0, 0, 0, 0, 0, 0, 0, 0, 0, 0, 0, 0, 0, 0, 0, 0, 0, 0, 0, 0, 0, 0, 0, 0, 0, 0, 0, 0, 0, 0, 0, 0, 0, 0, 0, 0, 0, 0, 0, 0, 0, 0, 0, 0, 0, 0, 0, 0, 0, 0, 0, 0, 0, 0, 0, 0, 0, 0, 0, 0, 0, 0, 0, 0, 0, 0, 0, 0, 0, 0, 0, 0, 0, 0, 0, 0, 0, 0, 1136, 1136, 1136, 1136, 1136, 1136, 1136, 1136, 1136, 1136, 1136, 1136, 1136, 1136, 1136, 1136, 1136, 1136, 1136, 1136, 0, 0, 0, 0, 0, 0, 0, 0, 0, 0, 0, 0, 0, 0, 0, 0, 0, 0, 0, 0, 0, 0, 0, 0, 0, 0, 0, 0, 0, 0, 0, 0, 0, 0, 0, 0, 0, 0, 0, 0, 0, 0, 0, 0, 0, 0, 0, 0, 0, 0, 0, 0, 0, 0, 0, 0, 0, 0, 0, 0, 0, 0, 0, 0, 0, 0, 0, 0, 0, 0, 0, 0, 0, 0, 0, 0, 0, 0, 0, 0, 1136, 1136, 1136, 1136, 1136, 1136, 1136, 1136, 1136, 1136, 1136, 1136, 1136, 1136, 1136, 1136, 1136, 1136, 1136, 1136, 0, 0, 0, 0, 0, 0, 0, 0, 0, 0, 0, 0, 0, 0, 0, 0, 0, 0, 0, 0, 0, 0, 0, 0, 0, 0, 0, 0, 0, 0, 0, 0, 0, 0, 0, 0, 0, 0, 0, 0, 0, 0, 0, 0, 0, 0, 0, 0, 0, 0, 0, 0, 0, 0, 0, 0, 0, 0, 0, 0, 0, 0, 0, 0, 0, 0, 0, 0, 0, 0, 0, 0, 0, 0, 0, 0, 0, 0, 0, 0, 1136, 1136, 1136, 1136, 1136, 1136, 1136, 1136, 1136, 1136, 1136, 1136, 1136, 1136, 1136, 1136, 1136, 1136, 1136, 1136, 0, 0, 0, 0, 0, 0, 0, 0, 0, 0, 0, 0, 0, 0, 0, 0, 0, 0, 0, 0, 0, 0, 0, 0, 0, 0, 0, 0, 0, 0, 0, 0, 0, 0, 0, 0, 0, 0, 0, 0, 0, 0, 0, 0, 0, 0, 0, 0, 0, 0, 0, 0, 0, 0, 0, 0, 0, 0, 0, 0, 0, 0, 0, 0, 0, 0, 0, 0, 0, 0, 0, 0, 0, 0, 0, 0, 0, 0, 0, 0, 1136, 1136, 1136, 1136, 1136, 1136, 1136, 1136, 1136, 1136, 1136, 1136, 1136, 1136, 1136, 1136, 1136, 1136, 1136, 1136, 0, 0, 0, 0, 0, 0, 0, 0, 0, 0, 0, 0, 0, 0, 0, 0, 0, 0, 0, 0, 0, 0, 0, 0, 0, 0, 0, 0, 0, 0, 0, 0, 0, 0, 0, 0, 0, 0, 0, 0, 0, 0, 0, 0, 0, 0, 0, 0, 0, 0, 0, 0, 0, 0, 0, 0, 0, 0, 0, 0, 0, 0, 0, 0, 0, 0, 0, 0, 0, 0, 0, 0, 0, 0, 0, 0, 0, 0, 0, 0, 1136, 1136, 1136, 1136, 1136, 1136, 1136, 1136, 1136, 1136, 1136, 1136, 1136, 1136, 1136, 1136, 1136, 1136, 1136, 1136, 0, 0, 0, 0, 0, 0, 0, 0, 0, 0, 0, 0, 0, 0, 0, 0, 0, 0, 0, 0, 0, 0, 0, 0, 0, 0, 0, 0, 0, 0, 0, 0, 0, 0, 0, 0, 0, 0, 0, 0, 0, 0, 0, 0, 0, 0, 0, 0, 0, 0, 0, 0, 0, 0, 0, 0, 0, 0, 0, 0, 0, 0, 0, 0, 0, 0, 0, 0, 0, 0, 0, 0, 0, 807, 808, 736, 736, 736, 736, 0, 1136, 1136, 1136, 1136, 1136, 1136, 1136, 1136, 1136, 1136, 1136, 1136, 1136, 1136, 1136, 1136, 1136, 1136, 1136, 1136, 0, 0, 0, 0, 0, 0, 0, 0, 0, 0, 0, 0, 0, 0, 0, 0, 0, 0, 0, 0, 0, 0, 0, 0, 0, 0, 0, 0, 0, 0, 0, 0, 0, 0, 0, 0, 0, 0, 0, 0, 0, 0, 0, 0, 0, 0, 0, 0, 0, 0, 0, 0, 0, 0, 0, 0, 0, 0, 0, 0, 0, 0, 0, 0, 0, 0, 0, 0, 0, 0, 0, 0, 0, 777, 778, 736, 736, 736, 736, 736, 1136, 1136, 1136, 1136, 1136, 1136, 1136, 1136, 1136, 1136, 1136, 1136, 1136, 1136, 1136, 1136, 1136, 1136, 1136, 1136, 0, 0, 0, 0, 0, 0, 0, 0, 0, 0, 0, 0, 0, 0, 0, 0, 0, 0, 0, 0, 0, 0, 0, 0, 0, 0, 0, 0, 0, 0, 0, 0, 0, 0, 0, 0, 0, 0, 0, 0, 0, 0, 0, 0, 0, 0, 0, 0, 0, 0, 0, 0, 0, 0, 0, 0, 0, 0, 0, 0, 0, 0, 0, 0, 0, 0, 0, 0, 0, 0, 0, 0, 0, 0, 710, 736, 736, 736, 736, 736, 1136, 1136, 1136, 1136, 1136, 1136, 1136, 1136, 1136, 1136, 1136, 1136, 1136, 1136, 1136, 1136, 1136, 1136, 1136, 1136, 0, 0, 0, 0, 0, 0, 0, 0, 0, 0, 0, 0, 0, 0, 0, 0, 0, 0, 0, 0, 0, 0, 0, 0, 0, 0, 0, 0, 0, 0, 0, 0, 0, 0, 0, 0, 0, 0, 0, 0, 0, 0, 0, 0, 0, 0, 0, 0, 0, 0, 0, 0, 0, 0, 0, 0, 0, 0, 0, 0, 0, 0, 0, 0, 0, 0, 0, 0, 0, 0, 0, 0, 0, 0, 710, 736, 736, 736, 736, 736, 856, 1136, 1136, 856, 856, 1136, 1136, 1136, 1136, 1136, 1136, 1136, 1136, 1136, 1136, 1136, 1136, 1136, 1136, 1136, 0, 0, 0, 0, 0, 0, 0, 0, 0, 0, 0, 0, 0, 0, 0, 0, 0, 0, 0, 0, 0, 0, 0, 0, 0, 0, 0, 0, 0, 0, 0, 0, 0, 0, 0, 0, 0, 0, 0, 0, 0, 0, 0, 0, 0, 0, 0, 0, 0, 0, 0, 0, 0, 0, 0, 0, 0, 0, 0, 0, 0, 0, 0, 0, 0, 0, 0, 0, 0, 0, 0, 0, 0, 0, 710, 736, 736, 736, 736, 856, 856, 856, 856, 856, 1136, 1136, 856, 1136, 1136, 1136, 1136, 1136, 1136, 1136, 1136, 1136, 1136, 1136, 1136, 1136, 0, 0, 0, 0, 0, 0, 0, 0, 0, 0, 0, 0, 0, 0, 0, 0, 0, 0, 0, 0, 0, 0, 0, 0, 0, 0, 0, 0, 0, 0, 0, 0, 0, 0, 0, 0, 0, 0, 0, 0, 0, 0, 0, 0, 0, 0, 0, 0, 0, 0, 0, 0, 0, 0, 0, 0, 0, 0, 0, 0, 0, 0, 0, 0, 0, 0, 0, 0, 0, 0, 0, 0, 0, 807, 808, 736, 736, 736, 736, 1136, 856, 856, 1136, 1136, 856, 1136, 1136, 1136, 1136, 1136, 1136, 1136, 1136, 1136, 1136, 1136, 1136, 1136, 1136, 1136, 0, 0, 0, 0, 0, 0, 0, 0, 0, 0, 0, 0, 0, 0, 0, 0, 0, 0, 0, 0, 0, 0, 0, 0, 0, 0, 0, 0, 0, 0, 0, 0, 0, 0, 0, 0, 0, 0, 0, 0, 0, 0, 0, 0, 0, 0, 0, 0, 0, 0, 0, 0, 0, 0, 0, 0, 0, 0, 0, 0, 0, 0, 0, 0, 0, 0, 0, 0, 0, 0, 0, 0, 0, 710, 736, 736, 736, 1136, 1136, 1136, 1136, 1136, 1136, 1136, 1136, 1136, 1136, 1136, 1136, 1136, 1136, 1136, 1136, 1136, 1136, 1136, 1136, 1136, 1136, 1136, 5, 6, 7, 8, 9, 10, 11, 12, 13, 14, 15, 16, 17, 18, 19, 20, 11, 12, 13, 14, 15, 16, 17, 18, 19, 20, 1, 2, 3, 4, 5, 6, 7, 8, 9, 10, 11, 12, 13, 14, 15, 16, 17, 18, 19, 20, 1, 2, 3, 4, 5, 6, 7, 8, 9, 10, 11, 12, 13, 14, 15, 16, 17, 18, 19, 20, 11, 12, 13, 14, 15, 16, 17, 710, 736, 736, 736, 1136, 1136, 1136, 1136, 1136, 1136, 1136, 1136, 1136, 1136, 1136, 1136, 1136, 1136, 1136, 1136, 1136, 1136, 1136, 1136, 1136, 1136, 1136, 26, 27, 28, 29, 30, 31, 32, 33, 34, 35, 36, 37, 38, 39, 40, 41, 32, 33, 34, 35, 36, 37, 38, 39, 40, 41, 22, 23, 24, 25, 26, 27, 28, 29, 30, 31, 32, 33, 34, 35, 36, 37, 38, 39, 40, 41, 22, 23, 24, 25, 26, 27, 28, 29, 30, 31, 32, 33, 34, 35, 36, 37, 38, 39, 40, 41, 32, 33, 34, 35, 36, 37, 38, 710, 736, 736, 1136, 1136, 1136, 1136, 1136, 1136, 1136, 1136, 1136, 1136, 1136, 1136, 1136, 1136, 1136, 1136, 1136, 1136, 1136, 1136, 1136, 1136, 1136, 1136, 47, 48, 49, 50, 51, 52, 53, 54, 55, 56, 57, 58, 59, 60, 61, 62, 53, 54, 55, 56, 57, 58, 59, 60, 61, 62, 43, 44, 45, 46, 47, 48, 49, 50, 51, 52, 53, 54, 55, 56, 57, 58, 59, 60, 61, 62, 43, 44, 45, 46, 47, 48, 49, 50, 51, 52, 53, 54, 55, 56, 57, 58, 59, 60, 61, 62, 53, 54, 55, 56, 57, 58, 59, 710, 736, 736, 1136, 1136, 1136, 1136, 1136, 1136, 1136, 1136, 1136, 1136, 1136, 1136, 1136, 1136, 1136, 1136, 1136, 1136, 1136, 1136, 1136, 1136, 1136, 1136, 68, 69, 70, 71, 72, 73, 74, 75, 76, 77, 78, 79, 80, 81, 82, 83, 74, 75, 76, 77, 78, 79, 80, 81, 82, 83, 64, 65, 66, 67, 68, 69, 70, 71, 72, 73, 74, 75, 76, 77, 78, 79, 80, 81, 82, 83, 64, 65, 66, 67, 68, 69, 70, 71, 72, 73, 74, 75, 76, 77, 78, 79, 80, 81, 82, 83, 74, 75, 76, 77, 78, 79, 80, 777, 778, 736, 1136, 1136, 1136, 1136, 1136, 1136, 1136, 1136, 1136, 1136, 1136, 1136, 1136, 1136, 1136, 1136, 1136, 1136, 1136, 1136, 1136, 1136, 1136, 1136, 89, 90, 91, 92, 93, 94, 95, 96, 97, 98, 99, 100, 101, 102, 103, 104, 95, 96, 97, 98, 99, 100, 101, 102, 103, 104, 85, 86, 87, 88, 89, 90, 91, 92, 93, 94, 95, 96, 97, 98, 99, 100, 101, 102, 103, 104, 85, 86, 87, 88, 89, 90, 91, 92, 93, 94, 95, 96, 97, 98, 99, 100, 101, 102, 103, 104, 95, 96, 97, 98, 99, 100, 101, 102, 777, 778, 736, 1136, 1136, 1136, 1136, 1136, 1136, 1136, 1136, 1136, 1136, 1136, 1136, 1136, 1136, 1136, 1136, 1136, 1136, 1136, 1136, 1136, 1136, 1136, 215, 216, 217, 218, 219, 220, 221, 222, 223, 224, 225, 226, 227, 228, 229, 230, 221, 222, 223, 224, 225, 226, 227, 228, 229, 230, 211, 212, 213, 214, 215, 216, 217, 218, 219, 220, 221, 222, 223, 224, 225, 226, 227, 228, 229, 230, 211, 212, 213, 214, 215, 216, 217, 218, 219, 220, 221, 222, 223, 224, 225, 226, 227, 228, 229, 230, 221, 222, 223, 224, 225, 226, 227, 228, 229, 777, 778, 1136, 1136, 1136, 1136, 1136, 1136, 1136, 1136, 1136, 1136, 1136, 1136, 1136, 1136, 1136, 1136, 1136, 1136, 1136, 1136, 1136, 1136, 1136, 236, 237, 238, 239, 240, 241, 242, 243, 244, 245, 246, 247, 248, 249, 250, 251, 221, 222, 223, 224, 225, 226, 227, 228, 221, 222, 223, 224, 225, 226, 227, 228, 238, 239, 219, 219, 220, 221, 222, 223, 224, 225, 226, 227, 228, 251, 232, 233, 234, 235, 236, 237, 238, 239, 240, 241, 242, 243, 244, 245, 246, 247, 248, 249, 250, 251, 221, 222, 1163, 1163, 1163, 1163, 1163, 1163, 1163, 1163, 777, 778, 1163, 1136, 1136, 1136, 1136, 1136, 1136, 1136, 1136, 1136, 1136, 1136, 1136, 1136, 1136, 1136, 1136, 1136, 1136, 1136, 1136, 1136, 193, 194, 195, 196, 197, 198, 199, 200, 201, 202, 203, 204, 205, 206, 207, 208, 219, 219, 219, 219, 219, 219, 219, 220, 221, 222, 223, 224, 219, 220, 221, 222, 223, 224, 225, 226, 227, 228, 228, 222, 223, 224, 225, 226, 227, 228, 228, 228, 193, 193, 193, 194, 195, 196, 197, 198, 199, 200, 201, 202, 203, 204, 205, 206, 207, 829, 829, 1163, 1163, 1163, 1163, 1163, 1163, 1163, 1163, 1163, 1163, 1163, 1163, 1136, 1136, 1136, 1136, 1136, 1136, 1136, 1136, 1136, 1136, 1136, 1136, 1136, 1136, 1136, 1136, 1136, 1136, 1136, 1136, 1136, 203, 204, 205, 206, 207, 208, 209, 200, 201, 202, 203, 204, 205, 206, 207, 208, 240, 240, 240, 240, 240, 240, 219, 219, 219, 219, 219, 219, 219, 220, 221, 222, 223, 224, 225, 226, 227, 228, 249, 223, 224, 225, 226, 227, 228, 249, 249, 249, 201, 202, 203, 204, 205, 206, 207, 208, 209, 200, 201, 202, 203, 204, 205, 206, 1163, 1163, 1163, 1163, 1163, 1163, 1163, 1163, 1163, 1163, 1163, 1163, 1163, 1163, 1163, 1136, 1136, 1136, 1136, 1136, 1136, 1136, 1136, 1136, 1136, 1136, 1136, 1136, 1136, 1136, 1136, 1136, 1136, 1136, 1136, 1136, 205, 206, 207, 208, 209, 209, 209, 209, 201, 202, 203, 204, 205, 206, 207, 208, 219, 220, 221, 222, 223, 224, 225, 226, 227, 228, 228, 219, 220, 221, 222, 223, 224, 225, 226, 227, 228, 228, 223, 224, 225, 226, 227, 228, 228, 247, 248, 249, 203, 204, 205, 206, 207, 208, 209, 209, 209, 209, 201, 202, 203, 204, 205, 206, 207, 1163, 1163, 1163, 1163, 1163, 1163, 1163, 1163, 1163, 1163, 1163, 1163, 1163, 1163, 1136, 1136, 1136, 1136, 1136, 1136, 1136, 1136, 1136, 1136, 1136, 1136, 1136, 1136, 1136, 1136, 1136, 1136, 1136, 1136, 1136, 222, 223, 224, 225, 226, 227, 228, 228, 201, 202, 203, 204, 205, 206, 207, 208, 219, 220, 221, 222, 223, 224, 225, 226, 227, 228, 228, 228, 220, 221, 222, 223, 224, 225, 226, 227, 228, 249, 223, 224, 225, 226, 227, 228, 249, 247, 248, 249, 220, 221, 222, 223, 224, 225, 226, 227, 228, 228, 201, 202, 203, 204, 205, 206, 207, 1163, 1163, 1163, 1163, 1163, 1163, 1163, 1163, 1163, 1163, 1163, 1136, 1136, 1136, 1136, 1136, 1136, 1136, 1136, 1136, 1136, 1136, 1136, 1136, 1136, 1136, 1136, 1136, 1136, 1136, 1136, 1136, 1136, 1136, 1136, 222, 223, 224, 225, 226, 227, 228, 249, 228, 228, 203, 204, 205, 206, 207, 208, 219, 219, 220, 221, 222, 223, 224, 225, 226, 227, 228, 249, 228, 222, 223, 224, 225, 226, 227, 228, 228, 227, 228, 225, 226, 227, 228, 228, 246, 247, 248, 249, 220, 221, 222, 223, 224, 225, 226, 227, 228, 249, 228, 228, 203, 204, 205, 206, 207, 208, 219, 1163, 1163, 1163, 1163, 1163, 1163, 1163, 1163, 1136, 1136, 1136, 1136, 1136, 1136, 1136, 1136, 1136, 1136, 1136, 1136, 1136, 1136, 1136, 1136, 1136, 1136, 1136, 1136, 1136, 1136, 1136, 1136, 1136, 222, 223, 224, 225, 226, 227, 228, 248, 249, 249, 228, 204, 205, 206, 207, 208, 220, 221, 222, 223, 224, 225, 226, 227, 228, 228, 228, 249, 249, 222, 223, 224, 225, 226, 227, 228, 249, 227, 228, 225, 226, 227, 228, 228, 228, 228, 248, 249, 220, 221, 222, 223, 224, 225, 226, 227, 228, 248, 249, 249, 228, 204, 205, 206, 207, 208, 220, 1163, 1163, 1163, 1163, 1163, 1163, 1163, 1163, 1163, 1136, 1136, 1136, 1136, 1136, 1136, 1136, 1136, 1136, 1136, 1136, 1136, 1136, 1136, 1136, 1136, 1136, 1136, 1136, 1136, 1136, 1136, 1136, 1136, 221, 222, 223, 219, 219, 220, 221, 222, 223, 224, 225, 226, 227, 228, 207, 208, 219, 220, 221, 222, 223, 224, 225, 226, 227, 228, 228, 248, 249, 228, 223, 224, 225, 226, 227, 228, 228, 228, 228, 226, 227, 228, 228, 249, 249, 249, 228, 228, 219, 220, 221, 222, 223, 219, 219, 220, 221, 222, 223, 224, 225, 226, 227, 228, 207, 208, 219, 1163, 1163, 1163, 1163, 1163, 1163, 1163, 1163, 1163, 1163, 1136, 1136, 1136, 1136, 1136, 1136, 1136, 1136, 1136, 1136, 1136, 1136, 1136, 1136, 1136, 1136, 1136, 1136, 1136, 1136, 1136, 1136, 1136, 221, 222, 219, 240, 219, 220, 221, 222, 223, 224, 225, 226, 227, 228, 208, 209, 219, 219, 220, 221, 222, 223, 224, 225, 226, 227, 228, 248, 249, 249, 222, 223, 224, 225, 226, 227, 228, 228, 249, 228, 227, 228, 249, 247, 248, 249, 249, 249, 219, 220, 221, 222, 219, 240, 219, 220, 221, 222, 223, 224, 225, 226, 227, 228, 208, 209, 219, 1163, 1163, 1163, 1163, 1163, 1136, 1136, 1136, 1136, 1136, 1136, 1136, 1136, 1136, 1136, 1136, 1136, 1136, 1136, 1136, 1136, 1136, 1136, 1136, 1136, 1136, 1136, 1136, 1136, 1136, 1136, 1136, 1136, 228, 221, 240, 240, 240, 219, 220, 221, 222, 223, 224, 225, 226, 227, 228, 209, 219, 240, 241, 242, 243, 244, 245, 246, 247, 248, 249, 228, 248, 249, 228, 228, 228, 228, 228, 228, 228, 249, 249, 249, 228, 228, 244, 245, 246, 247, 248, 249, 228, 228, 228, 221, 240, 240, 240, 219, 220, 221, 222, 223, 224, 225, 226, 227, 228, 209, 219, 736, 736, 736, 1136, 1136, 1136, 1136, 1136, 1136, 1136, 1136, 1136, 1136, 1136, 1136, 1136, 1136, 1136, 1136, 1136, 1136, 1136, 1136, 1136, 1136, 1136, 1136, 1136, 1136, 1136, 1136, 1136, 1136, 0, 0, 0, 0, 0, 0, 0, 0, 0, 0, 0, 0, 0, 0, 0, 0, 0, 0, 0, 0, 0, 0, 0, 0, 0, 0, 0, 0, 0, 0, 0, 0, 0, 0, 0, 0, 0, 0, 0, 0, 0, 0, 0, 0, 0, 0, 0, 0, 0, 0, 0, 0, 0, 0, 0, 0, 0, 0, 0, 0, 0, 0, 0, 0, 0, 0, 0, 0, 0, 0, 0, 0, 0, 0, 0, 0, 0, 0, 0, 0, 0, 0, 0, 0, 0, 0, 0, 0, 0, 0, 0, 0, 0, 0, 0, 0, 0, 0, 0, 0, 0, 0, 0, 0, 0, 0, 0, 0, 0, 0, 0, 0, 0, 0, 0, 0, 0, 0, 0, 0, 0, 0, 0, 0, 0, 0, 0, 0, 0, 0, 0, 0, 0, 0, 0, 0, 0, 0, 0, 0, 0, 0, 0, 0, 0, 0, 0, 0, 0, 0, 0, 0, 0, 0, 0, 0, 0, 0, 0, 0, 0, 0, 0, 0, 0, 0, 0, 0, 0, 0, 0, 0, 0, 0, 0, 0, 0, 0, 0, 0, 0, 0, 0, 0, 0, 0, 0, 0, 0, 0, 0, 0, 0, 0, 0, 0, 0, 0, 0, 0, 0, 0, 0, 0, 0, 0, 0, 0, 0, 0, 0, 0, 0, 0, 0, 0, 0, 0, 0, 0, 0, 0, 0, 0, 0, 0, 0, 0, 0, 0, 0, 0, 0, 0, 0, 0, 0, 0, 0, 0, 0, 0, 0, 0, 0, 0, 0, 0, 0, 0, 0, 0, 0, 0, 0, 0, 0, 0, 0, 0, 0, 0, 0, 0, 0, 0, 0, 0, 0, 0, 0, 0, 0, 0, 0, 0, 0, 0, 0, 0, 0, 0, 0, 0, 0, 0, 0, 0, 0, 0, 0, 0, 0, 0, 0, 0, 0, 0, 0, 0, 0, 0, 0, 0, 0, 0, 0, 0, 0, 0, 0, 0, 0, 0, 0, 0, 0, 0, 0, 0, 0, 0, 0, 0, 0, 0, 0, 0, 0, 0, 0, 0, 0, 0, 0, 0, 0, 0, 0, 0, 0, 0, 0, 0, 0, 0, 0, 0, 0, 0, 0, 0, 0, 0, 0, 0, 0, 0, 0, 0, 0, 0, 0, 0, 0, 0, 0, 0, 0, 0, 0, 0, 0, 0, 0, 0, 0, 0, 0, 0, 0, 0, 0, 0, 0, 0, 0, 0, 0, 0, 0, 0, 0, 0, 0, 0, 0, 0, 0, 0, 0, 0, 0, 0, 0, 0, 0, 0, 0, 0, 0, 0, 0, 0, 0, 0, 0, 0, 0, 0, 0, 0, 0, 0, 0, 0, 0, 0, 0, 0, 0, 0, 0, 0, 0, 0, 0, 0, 0, 0, 0, 0, 0, 0, 0, 0, 0, 0, 0, 0, 0, 0, 0, 0, 0, 0, 0, 0, 0, 0, 0, 0, 0, 0, 0, 0, 0, 0, 0, 0, 0, 0, 0, 0, 0, 0, 0, 0, 0, 0, 0, 0, 0, 0, 0, 0, 0, 0, 0, 0, 0, 0, 0, 0, 0, 0, 0, 0, 0, 0],
         "height":35,
         "id":2,
         "name":"Background2",
         "opacity":1,
         "type":"tilelayer",
         "visible":true,
         "width":100,
         "x":0,
         "y":0
        }, 
        {
         "data":[0, 0, 0, 0, 0, 0, 0, 0, 0, 0, 0, 0, 0, 0, 0, 0, 0, 0, 0, 0, 0, 0, 0, 0, 0, 0, 0, 0, 0, 0, 0, 0, 0, 0, 0, 0, 0, 0, 0, 0, 0, 0, 0, 0, 0, 0, 0, 0, 0, 0, 0, 0, 0, 0, 0, 0, 0, 0, 0, 0, 0, 0, 0, 0, 0, 0, 0, 0, 0, 0, 0, 0, 0, 0, 0, 0, 0, 0, 0, 0, 0, 0, 0, 0, 0, 0, 0, 0, 0, 0, 0, 0, 0, 0, 0, 0, 0, 0, 0, 0, 0, 0, 0, 0, 0, 0, 0, 0, 0, 0, 0, 0, 0, 0, 0, 0, 0, 0, 0, 0, 0, 0, 0, 0, 0, 0, 0, 0, 0, 0, 0, 0, 0, 0, 0, 0, 0, 0, 0, 0, 0, 0, 0, 0, 0, 0, 0, 0, 0, 0, 0, 0, 0, 0, 0, 0, 0, 0, 0, 0, 0, 0, 0, 0, 0, 0, 0, 0, 0, 0, 0, 0, 0, 0, 0, 0, 0, 0, 0, 0, 0, 0, 0, 0, 0, 0, 0, 0, 0, 0, 0, 0, 0, 0, 0, 0, 0, 0, 0, 0, 0, 0, 0, 0, 0, 0, 0, 0, 0, 0, 0, 0, 0, 0, 0, 0, 0, 0, 0, 0, 0, 0, 0, 0, 0, 0, 0, 0, 0, 0, 0, 0, 0, 0, 0, 0, 0, 0, 0, 0, 0, 0, 0, 0, 0, 0, 0, 0, 0, 0, 0, 0, 0, 0, 0, 0, 0, 0, 0, 0, 0, 0, 0, 0, 0, 0, 0, 0, 0, 0, 0, 0, 0, 0, 0, 0, 0, 0, 0, 0, 0, 0, 0, 0, 0, 0, 0, 0, 0, 0, 0, 0, 0, 0, 0, 0, 0, 0, 0, 0, 0, 0, 0, 0, 0, 0, 0, 0, 0, 0, 0, 0, 0, 0, 0, 0, 0, 0, 0, 0, 0, 0, 0, 0, 0, 0, 0, 0, 0, 0, 0, 0, 0, 0, 0, 0, 0, 0, 0, 0, 0, 0, 0, 0, 0, 0, 0, 0, 0, 0, 0, 0, 0, 0, 0, 0, 0, 0, 0, 0, 0, 0, 0, 0, 0, 0, 0, 0, 0, 0, 0, 0, 0, 0, 0, 0, 0, 0, 0, 0, 0, 0, 0, 0, 0, 0, 0, 0, 0, 0, 0, 0, 0, 0, 0, 0, 0, 0, 0, 0, 0, 0, 0, 0, 0, 0, 0, 0, 0, 0, 0, 0, 0, 0, 0, 0, 0, 0, 0, 0, 0, 0, 0, 0, 0, 0, 0, 0, 0, 0, 0, 0, 0, 0, 0, 0, 0, 0, 0, 0, 0, 0, 0, 0, 0, 0, 0, 0, 0, 0, 0, 0, 0, 0, 0, 0, 0, 0, 0, 0, 0, 0, 0, 0, 0, 0, 0, 0, 0, 0, 0, 0, 0, 0, 0, 0, 0, 0, 0, 0, 0, 0, 0, 0, 0, 0, 0, 0, 0, 0, 0, 0, 0, 0, 0, 0, 0, 0, 0, 0, 0, 0, 0, 0, 0, 0, 0, 0, 0, 0, 0, 0, 0, 0, 0, 0, 0, 0, 0, 0, 0, 0, 0, 0, 0, 0, 0, 0, 0, 0, 0, 0, 0, 0, 0, 0, 0, 0, 0, 0, 0, 0, 0, 0, 0, 0, 0, 0, 0, 0, 0, 0, 0, 0, 0, 0, 0, 0, 0, 0, 0, 0, 0, 0, 0, 0, 0, 0, 0, 0, 0, 0, 0, 0, 0, 0, 0, 0, 0, 0, 0, 0, 0, 0, 0, 0, 0, 0, 0, 0, 0, 0, 0, 0, 0, 0, 0, 0, 0, 0, 0, 0, 0, 0, 0, 0, 0, 0, 0, 0, 0, 0, 0, 0, 0, 0, 0, 0, 0, 0, 0, 0, 0, 0, 0, 0, 0, 0, 0, 0, 0, 0, 0, 0, 0, 0, 0, 0, 0, 0, 0, 0, 0, 0, 0, 0, 0, 0, 0, 0, 0, 0, 0, 0, 0, 0, 0, 0, 0, 0, 0, 0, 0, 0, 0, 0, 0, 0, 0, 0, 0, 0, 0, 0, 0, 0, 0, 0, 0, 0, 0, 0, 0, 0, 0, 0, 0, 0, 0, 0, 0, 0, 0, 0, 0, 0, 0, 0, 0, 0, 0, 0, 0, 0, 0, 0, 0, 0, 0, 0, 0, 0, 0, 0, 0, 0, 0, 0, 0, 0, 0, 0, 0, 0, 0, 0, 0, 0, 0, 0, 0, 0, 0, 0, 0, 0, 0, 0, 0, 0, 0, 0, 0, 0, 0, 0, 0, 0, 0, 0, 0, 0, 0, 0, 0, 0, 0, 0, 0, 0, 0, 0, 0, 0, 0, 0, 0, 0, 0, 0, 0, 0, 0, 0, 0, 0, 736, 736, 736, 0, 0, 0, 0, 0, 0, 0, 0, 0, 0, 0, 0, 0, 0, 0, 0, 0, 0, 0, 0, 0, 0, 0, 0, 0, 0, 0, 0, 0, 0, 0, 0, 0, 0, 0, 0, 0, 0, 0, 0, 0, 0, 0, 0, 0, 0, 0, 0, 0, 0, 0, 0, 0, 0, 0, 0, 0, 0, 0, 0, 0, 0, 0, 0, 0, 0, 0, 0, 0, 0, 0, 0, 0, 0, 0, 0, 0, 0, 0, 0, 0, 0, 0, 0, 0, 0, 0, 0, 0, 0, 0, 0, 0, 0, 0, 0, 0, 0, 0, 736, 0, 0, 0, 0, 0, 0, 0, 0, 0, 0, 0, 0, 0, 0, 0, 0, 0, 0, 0, 0, 0, 0, 0, 0, 0, 0, 0, 0, 0, 0, 0, 0, 0, 0, 0, 0, 0, 0, 0, 0, 0, 0, 0, 0, 0, 0, 0, 0, 0, 0, 0, 0, 0, 0, 0, 0, 0, 0, 0, 0, 0, 0, 0, 0, 0, 0, 0, 0, 0, 0, 0, 0, 0, 0, 0, 0, 0, 0, 0, 0, 0, 0, 0, 0, 0, 0, 0, 0, 0, 0, 0, 0, 0, 0, 0, 0, 0, 0, 0, 736, 0, 0, 0, 0, 0, 0, 0, 0, 0, 0, 0, 0, 0, 0, 0, 0, 0, 0, 0, 0, 0, 0, 0, 0, 0, 0, 0, 0, 0, 0, 0, 0, 0, 0, 0, 0, 0, 0, 0, 0, 0, 0, 0, 0, 0, 0, 0, 0, 0, 0, 0, 0, 0, 0, 0, 0, 0, 0, 0, 0, 0, 0, 0, 0, 0, 0, 0, 0, 0, 0, 0, 0, 0, 0, 0, 0, 0, 0, 0, 0, 0, 0, 0, 0, 0, 0, 0, 0, 0, 0, 0, 0, 0, 0, 0, 0, 0, 0, 0, 736, 0, 0, 1136, 1136, 1136, 1136, 1136, 1136, 1136, 1136, 0, 0, 0, 0, 0, 0, 0, 0, 0, 0, 0, 0, 0, 0, 0, 0, 0, 0, 0, 0, 0, 0, 0, 0, 0, 0, 0, 0, 0, 0, 0, 0, 0, 0, 0, 0, 0, 0, 0, 0, 0, 0, 0, 0, 0, 0, 0, 0, 0, 0, 0, 0, 0, 0, 0, 0, 0, 0, 0, 0, 0, 0, 0, 0, 0, 0, 0, 0, 0, 0, 0, 0, 0, 0, 0, 0, 0, 0, 0, 0, 0, 0, 0, 0, 0, 0, 0, 0, 0, 0, 0, 0, 1136, 1136, 1136, 1136, 1136, 1136, 1136, 0, 0, 0, 0, 0, 0, 0, 0, 0, 0, 0, 0, 0, 0, 0, 0, 0, 0, 0, 0, 0, 0, 0, 0, 0, 0, 0, 0, 0, 0, 0, 0, 0, 0, 0, 0, 0, 0, 0, 0, 0, 0, 0, 0, 0, 0, 0, 0, 0, 0, 0, 0, 0, 0, 0, 0, 0, 0, 0, 0, 0, 0, 0, 0, 0, 0, 0, 0, 0, 0, 0, 0, 0, 0, 0, 0, 0, 0, 0, 0, 0, 0, 0, 0, 0, 0, 0, 0, 0, 0, 0, 0, 0, 1136, 1136, 1136, 1136, 1136, 1136, 0, 0, 0, 0, 0, 0, 0, 0, 0, 0, 0, 0, 0, 0, 0, 0, 0, 0, 0, 0, 0, 0, 0, 0, 0, 0, 0, 0, 0, 0, 0, 0, 0, 0, 0, 0, 0, 0, 0, 0, 0, 0, 0, 0, 0, 0, 0, 0, 0, 0, 0, 0, 0, 0, 0, 0, 0, 0, 0, 0, 0, 0, 0, 0, 0, 0, 0, 0, 0, 0, 0, 0, 0, 0, 0, 0, 0, 0, 0, 0, 0, 0, 0, 0, 0, 0, 0, 0, 0, 0, 0, 0, 0, 0, 1136, 1136, 1136, 0, 0, 0, 0, 0, 0, 0, 0, 0, 0, 0, 0, 0, 0, 0, 0, 0, 0, 0, 0, 0, 0, 0, 0, 0, 0, 0, 0, 0, 0, 0, 0, 0, 0, 0, 0, 0, 0, 0, 0, 0, 0, 0, 0, 0, 0, 0, 0, 0, 0, 0, 0, 0, 0, 0, 0, 0, 0, 0, 0, 0, 0, 0, 0, 0, 0, 0, 0, 0, 0, 0, 0, 0, 0, 0, 0, 0, 0, 0, 0, 0, 0, 0, 0, 0, 0, 0, 0, 0, 0, 0, 0, 0, 0, 0, 0, 0, 1136, 1136, 1136, 0, 0, 0, 0, 0, 0, 0, 0, 0, 0, 0, 0, 0, 0, 0, 0, 0, 0, 0, 0, 0, 0, 0, 0, 0, 0, 0, 0, 850, 850, 0, 0, 0, 0, 0, 0, 0, 0, 0, 0, 0, 0, 0, 0, 0, 0, 0, 0, 0, 0, 0, 0, 0, 0, 0, 0, 0, 0, 0, 0, 0, 0, 0, 0, 0, 0, 0, 1090, 1090, 0, 0, 0, 0, 0, 0, 0, 0, 0, 0, 0, 0, 0, 0, 0, 0, 0, 0, 0, 0, 0, 0, 0, 0, 0, 0, 0, 0, 1136, 1136, 1136, 0, 0, 0, 0, 0, 0, 0, 0, 0, 0, 0, 0, 0, 0, 0, 0, 0, 0, 0, 0, 0, 0, 0, 0, 0, 0, 0, 0, 850, 850, 0, 0, 0, 0, 0, 0, 0, 0, 0, 0, 0, 0, 0, 0, 0, 0, 0, 0, 0, 0, 0, 0, 0, 0, 0, 0, 0, 0, 0, 0, 0, 0, 0, 0, 0, 0, 1090, 783, 757, 0, 0, 0, 0, 0, 0, 0, 0, 0, 0, 0, 0, 0, 0, 0, 0, 0, 0, 0, 0, 0, 0, 0, 0, 0, 0, 0, 0, 1136, 1136, 1136, 1136, 0, 0, 0, 0, 0, 0, 0, 0, 0, 0, 0, 0, 0, 0, 0, 0, 0, 0, 0, 0, 0, 0, 0, 0, 0, 0, 0, 850, 850, 0, 0, 0, 0, 0, 0, 0, 0, 0, 0, 0, 0, 0, 0, 0, 0, 0, 0, 0, 0, 0, 0, 0, 0, 0, 0, 0, 0, 0, 0, 0, 0, 0, 0, 0, 1090, 783, 824, 0, 0, 0, 0, 0, 0, 0, 0, 0, 0, 0, 0, 0, 0, 0, 0, 0, 0, 0, 0, 0, 0, 0, 0, 0, 0, 0, 0, 0, 0, 0, 0, 0, 0, 0, 0, 0, 0, 0, 0, 0, 0, 0, 0, 0, 0, 0, 0, 0, 0, 0, 0, 0, 0, 0, 0, 0, 0, 0, 0, 850, 850, 850, 0, 0, 0, 0, 0, 0, 0, 0, 0, 0, 0, 0, 0, 0, 0, 0, 0, 0, 0, 0, 0, 0, 0, 0, 1090, 1090, 1090, 1090, 1090, 1090, 1090, 1090, 0, 1090, 783, 927, 974, 1093, 1090, 1090, 0, 1090, 1090, 1090, 1090, 1090, 1090, 1090, 1090, 1090, 0, 0, 0, 0, 0, 0, 0, 0, 0, 0, 0, 0, 0, 0, 0, 0, 0, 0, 0, 0, 0, 0, 0, 0, 0, 0, 0, 0, 0, 0, 0, 0, 0, 0, 0, 0, 0, 0, 0, 0, 0, 0, 0, 0, 0, 0, 850, 850, 850, 850, 850, 0, 0, 0, 0, 0, 0, 0, 0, 0, 0, 0, 0, 0, 0, 0, 0, 0, 0, 0, 0, 0, 0, 1090, 898, 898, 898, 898, 898, 898, 898, 898, 1090, 783, 927, 1016, 736, 829, 1116, 923, 1090, 949, 927, 927, 927, 946, 946, 946, 1022, 923, 1088, 1088, 1088, 1088, 0, 0, 0, 0, 0, 0, 0, 0, 0, 0, 0, 0, 0, 0, 0, 0, 0, 0, 0, 0, 0, 0, 0, 0, 0, 0, 0, 0, 0, 0, 0, 0, 0, 0, 0, 0, 0, 0, 0, 0, 0, 0, 850, 850, 850, 0, 850, 0, 0, 0, 0, 0, 0, 0, 0, 0, 0, 0, 0, 0, 0, 0, 0, 0, 1090, 1090, 1090, 1090, 1090, 877, 877, 877, 877, 877, 877, 877, 877, 877, 777, 1022, 927, 999, 999, 999, 944, 946, 946, 946, 1045, 1022, 1041, 0, 735, 756, 944, 946, 946, 946, 756, 757, 0, 0, 0, 0, 0, 0, 0, 0, 0, 0, 0, 0, 0, 0, 0, 807, 830, 0, 0, 0, 0, 0, 0, 0, 0, 0, 0, 0, 0, 0, 0, 0, 0, 0, 0, 0, 0, 0, 0, 0, 0, 0, 850, 850, 850, 850, 850, 0, 0, 0, 0, 0, 0, 0, 0, 0, 0, 0, 0, 0, 0, 0, 0, 1090, 783, 898, 971, 756, 946, 776, 0, 0, 0, 0, 0, 0, 0, 0, 0, 777, 778, 829, 829, 757, 735, 736, 756, 999, 756, 757, 0, 0, 807, 808, 827, 856, 759, 1095, 757, 0, 0, 0, 0, 0, 0, 0, 0, 0, 0, 0, 0, 0, 0, 0, 0, 902, 971, 0, 0, 0, 0, 0, 0, 0, 0, 0, 0, 0, 0, 0, 0, 0, 0, 0, 0, 0, 0, 0, 0, 0, 0, 0, 850, 850, 850, 0, 850, 0, 0, 0, 0, 0, 0, 0, 0, 0, 0, 0, 0, 0, 0, 0, 1090, 783, 898, 824, 1045, 756, 776, 0, 807, 830, 0, 0, 0, 0, 0, 0, 0, 0, 710, 756, 757, 0, 0, 777, 778, 778, 806, 0, 0, 807, 808, 808, 775, 775, 1116, 1119, 0, 0, 0, 0, 0, 0, 0, 0, 0, 0, 0, 0, 0, 0, 0, 0, 0, 902, 971, 0, 0, 0, 0, 0, 0, 0, 0, 0, 0, 0, 0, 0, 0, 0, 0, 0, 0, 0, 0, 0, 0, 0, 0, 0, 850, 850, 850, 0, 0, 0, 0, 0, 0, 0, 0, 0, 0, 0, 0, 0, 0, 0, 0, 1090, 783, 898, 898, 1041, 735, 757, 0, 807, 999, 827, 828, 0, 0, 0, 0, 0, 0, 0, 710, 806, 0, 0, 0, 0, 710, 808, 806, 0, 807, 808, 736, 1163, 775, 756, 825, 875, 0, 0, 0, 0, 0, 0, 0, 0, 0, 0, 0, 0, 0, 0, 0, 0, 0, 902, 971, 0, 0, 0, 0, 0, 0, 0, 0, 0, 0, 0, 0, 0, 0, 0, 0, 0, 0, 0, 0, 0, 0, 0, 0, 0, 850, 850, 850, 850, 850, 0, 0, 0, 0, 0, 0, 0, 0, 1088, 1090, 1088, 0, 0, 1090, 783, 898, 877, 1041, 0, 0, 0, 807, 808, 999, 827, 806, 0, 0, 0, 0, 0, 0, 807, 808, 804, 807, 827, 828, 0, 777, 756, 757, 0, 710, 736, 1163, 1163, 1163, 827, 1022, 875, 0, 0, 0, 0, 0, 0, 0, 0, 0, 0, 0, 0, 0, 0, 0, 0, 0, 902, 971, 0, 0, 0, 0, 0, 0, 0, 0, 0, 0, 0, 0, 0, 0, 0, 0, 0, 0, 0, 0, 0, 0, 0, 0, 0, 850, 850, 850, 850, 850, 0, 0, 0, 0, 0, 1088, 1088, 1088, 783, 1116, 1119, 1090, 1090, 783, 824, 804, 0, 0, 0, 0, 0, 777, 778, 736, 736, 806, 0, 0, 0, 0, 0, 807, 808, 736, 736, 736, 736, 827, 828, 855, 806, 0, 0, 710, 736, 756, 757, 777, 778, 1022, 875, 0, 0, 0, 0, 0, 0, 0, 0, 0, 0, 0, 0, 0, 0, 0, 0, 0, 902, 971, 0, 0, 0, 0, 0, 0, 0, 0, 0, 0, 0, 0, 0, 0, 0, 0, 0, 0, 0, 0, 0, 0, 0, 0, 0, 850, 850, 850, 850, 759, 1090, 1090, 1090, 1090, 1090, 783, 927, 994, 927, 927, 898, 824, 946, 946, 946, 1041, 0, 0, 0, 0, 0, 0, 777, 778, 756, 757, 0, 0, 0, 0, 807, 808, 736, 736, 736, 736, 736, 736, 736, 736, 827, 828, 807, 808, 827, 806, 0, 0, 710, 1022, 875, 0, 0, 0, 0, 0, 0, 0, 0, 0, 0, 0, 0, 0, 0, 0, 0, 0, 902, 971, 0, 0, 0, 0, 0, 0, 0, 0, 0, 0, 0, 0, 0, 0, 0, 0, 0, 0, 0, 0, 0, 0, 0, 0, 0, 850, 850, 850, 1113, 783, 898, 898, 898, 898, 898, 898, 898, 898, 898, 923, 898, 971, 999, 999, 804, 0, 0, 0, 0, 0, 0, 0, 807, 808, 806, 0, 0, 0, 0, 0, 710, 736, 736, 736, 736, 775, 776, 710, 736, 736, 856, 806, 710, 856, 736, 806, 0, 0, 710, 1022, 898, 997, 997, 997, 997, 997, 997, 997, 997, 997, 997, 997, 997, 997, 997, 997, 997, 997, 997, 971, 0, 0, 0, 0, 0, 0, 0, 0, 0, 0, 0, 0, 0, 0, 0, 0, 850, 0, 0, 0, 0, 0, 0, 850, 0, 850, 850, 850, 735, 946, 1016, 946, 974, 824, 921, 923, 927, 923, 994, 927, 898, 971, 756, 827, 757, 0, 0, 0, 0, 0, 0, 807, 808, 736, 806, 0, 0, 0, 0, 807, 808, 736, 736, 736, 736, 804, 0, 777, 778, 736, 756, 757, 710, 808, 736, 806, 0, 0, 710, 736, 1022, 1016, 946, 946, 946, 946, 946, 946, 946, 946, 946, 946, 944, 898, 1016, 944, 946, 952, 1016, 0, 0, 0, 0, 0, 0, 0, 0, 0, 0, 0, 0, 0, 0, 0, 0, 0, 0, 0, 0, 0, 0, 0, 0, 0, 0, 850, 850, 850, 850, 735, 974, 873, 1020, 898, 824, 825, 927, 927, 971, 944, 946, 1045, 827, 827, 828, 0, 0, 0, 0, 0, 807, 808, 736, 736, 806, 0, 0, 0, 0, 735, 736, 736, 736, 736, 736, 829, 830, 0, 777, 778, 806, 0, 777, 778, 736, 806, 0, 0, 710, 736, 1022, 971, 0, 0, 0, 0, 0, 0, 0, 0, 0, 0, 0, 0, 0, 0, 0, 0, 0, 0, 0, 0, 0, 0, 0, 0, 0, 0, 0, 0, 0, 0, 0, 0, 0, 0, 0, 0, 0, 0, 0, 0, 0, 0, 0, 0, 0, 0, 0, 0, 0, 0, 0, 0, 0, 0, 0, 0, 0, 0, 0, 0, 0, 0, 0, 0, 0, 0, 0, 0, 0, 0, 0, 0, 0, 0, 0, 0, 0, 0, 0, 0, 0, 0, 0, 0, 0, 0, 0, 0, 0, 0, 807, 808, 827, 806, 0, 0, 710, 736, 1022, 1016, 0, 0, 0, 0, 0, 0, 0, 0, 0, 0, 0, 0, 0, 0, 0, 0, 0, 0, 0, 0, 0, 0, 0, 0, 0, 0, 0, 0, 0, 0, 0, 0, 0, 0, 0, 0, 0, 0, 0, 0, 0, 0, 0, 0, 0, 0, 0, 0, 0, 0, 0, 0, 0, 0, 0, 0, 0, 0, 0, 0, 0, 0, 0, 0, 0, 0, 0, 0, 0, 0, 0, 0, 0, 0, 0, 0, 0, 0, 0, 0, 0, 0, 0, 0, 0, 0, 0, 0, 0, 0, 807, 808, 827, 806, 0, 0, 710, 736, 1022, 971, 0, 0, 0, 0, 0, 0, 0, 0, 0, 0, 0, 0, 0, 0, 0, 0, 0, 0, 0, 0, 0, 0, 0, 0, 0, 0, 0, 0, 0, 0, 0, 0, 0, 0, 0, 0, 0, 0, 0, 0, 0, 0, 0, 0, 0, 0, 0, 0, 0, 0, 0, 0, 0, 0, 0, 0, 0, 0, 0, 0, 0, 0, 0, 0, 0, 0, 0, 0, 0, 0, 0, 0, 0, 0, 0, 0, 0, 0, 0, 0, 0, 0, 0, 0, 0, 0, 0, 0, 0, 0, 710, 856, 736, 806, 0, 0, 710, 736, 1022, 1016, 0, 0, 0, 0, 0, 0, 0, 0, 0, 0, 0, 0, 0, 0, 0, 0, 0, 0, 0, 0, 0, 0, 0, 0, 0, 0, 0, 0, 0, 0, 0, 0, 0, 0, 0, 0, 0, 0, 0, 0, 0, 0, 0, 0, 0, 0, 0, 0, 0, 0, 0, 0, 0, 0, 0, 0, 0, 0, 0, 0, 0, 0, 0, 0, 0, 0, 0, 0, 0, 0, 0, 0, 0, 0, 0, 0, 0, 0, 0, 0, 0, 0, 0, 0, 0, 0, 0, 0, 0, 0, 710, 808, 736, 806, 0, 0, 710, 736, 1022, 971, 0, 0, 0, 0, 0, 0, 0, 0, 0, 0, 0, 0, 0, 0, 0, 0, 0, 0, 0, 0, 0, 0, 0, 0, 0, 0, 0, 0, 0, 0, 0, 0, 0, 0, 0, 0, 0, 0, 0, 0, 0, 0, 0, 0, 0, 0, 0, 0, 0, 0, 0, 0, 0, 0, 0, 0, 0, 0, 0, 0, 0, 0, 0, 0, 0, 0, 0, 0, 0, 0, 0, 0, 0, 0, 0, 0, 0, 0, 0, 0, 0, 0, 0, 0, 0, 0, 0, 0, 0, 0, 777, 778, 736, 806, 0, 0, 710, 736, 1022, 1016, 0, 0, 0, 0, 0, 0, 0, 0, 0, 0, 0, 0, 0, 0, 0, 0, 0, 0, 0, 0, 0, 0, 0, 0, 0, 0, 0, 0, 0, 0, 0, 0],
         "height":35,
         "id":3,
         "name":"phy_level",
         "opacity":1,
         "type":"tilelayer",
         "visible":true,
         "width":100,
         "x":0,
         "y":0
        }],
 "nextlayerid":4,
 "nextobjectid":1,
 "orientation":"orthogonal",
 "renderorder":"right-down",
 "tiledversion":"1.2.0",
 "tileheight":16,
 "tilesets":[
        {
         "firstgid":1,
         "source":"Ressources\/TileSets\/backgrounds.tsx"
        }, 
        {
         "firstgid":526,
         "source":"Ressources\/TileSets\/super_pixel_plains_style_A_background.tsx"
        }],
 "tilewidth":16,
 "type":"map",
 "version":1.2,
 "width":100
}